{
  "name": "Patient",
  "plural": "Patients",
  "base": "User",
  "idInjection": true,
  "options": {
    "validateUpsert": true
  },
  "properties": {
    "firstname": {
      "type": "string",
      "required": true
    },
    "lastname": {
      "type": "string",
      "required": true
    },
    "age": {
      "type": "number",
      "default": 0
    },
    "email": {
      "type": "string"
    },
    "mailingAddress": {
      "type": "string"
    },
    "mailingCity": {
      "type": "string"
    },
    "mailingState": {
      "type": "string"
    },
    "mailingZip": {
      "type": "string"
    },
    "phone": {
      "type": "string"
    }
  },
  "validations": [],
  "relations": {
    "appointments": {
      "type": "hasMany",
      "model": "Appointment",
      "foreignKey": ""
    },
    "medicalFiles": {
      "type": "hasMany",
      "model": "MedicalFile",
      "foreignKey": ""
    }
  },
  "acls": [
    {
      "accessType": "READ",
      "principalType": "ROLE",
      "principalId": "$authenticated",
      "permission": "ALLOW"
    }
  ],
  "methods": {}
}
